{
  "swagger": "2.0",
  "info": {
    "version": "1.0",
    "title": "KARST",
    "description": "这是喀斯特团队最新的swagger模版",
    "contact": {
      "email": "1056344062@qq.com"
    },
    "license": {
      "name": "Apache 2.0",
      "url": "http://www.apache.org/licenses/LICENSE-2.0.html"
    }
  },
  "schemes": [
    "http",
    "https"
  ],
  "basePath": "/test",
  "host": "122.190.237.156",
  "paths": {
    "/myKarst/aRow": {
      "get": {
        "x-requestSqlId": "1",
        "x-dataSourceId": "1",
        "x-responseType": "json",
        "produces": [
          "application/json"
        ],
        "parameters": [
          {
            "in": "query",
            "name": "NAME",
            "type": "integer",
            "required": true
          }
        ],
        "responses": {
          "200": {
            "description": "The result",
            "schema": {
              "type": "object",
              "properties": {
                "code": {
                  "type": "integer"
                },
                "message": {
                  "type": "string"
                },
                "data": {
                  "type": "array",
                  "items": {
                    "properties": {}
                  }
                },
                "count": {
                  "type": "integer"
                },
                "pageId": {
                  "type": "integer"
                },
                "totalPage": {
                  "type": "integer"
                }
              }
            }
          }
        }
      }
    },
    "/myKarst/list": {
      "get": {
        "x-requestSqlId": "2",
        "x-dataSourceId": "1",
        "x-responseType": "json",
        "produces": [
          "application/json"
        ],
        "parameters": [
          {
            "in": "query",
            "name": "NAME",
            "type": "string",
            "required": true
          },
          {
            "in": "query",
            "name": "MONEY",
            "type": "number",
            "format": "float",
            "required": true
          },
          {
            "in": "query",
            "name": "SEX",
            "type": "string",
            "required": true
          },
          {
            "in": "query",
            "name": "pageNumber",
            "type": "integer",
            "required": true
          },
          {
            "in": "query",
            "name": "pageSize",
            "type": "integer",
            "default":5,
            "required": false
          }
        ],
        "responses": {
          "200": {
            "description": "The result",
            "schema": {
              "type": "object",
              "properties": {
                "code": {
                  "type": "integer"
                },
                "message": {
                  "type": "string"
                },
                "data": {
                  "type": "array",
                  "items": {
                    "properties": {}
                  }
                },
                "count": {
                  "type": "integer"
                },
                "pageId": {
                  "type": "integer"
                },
                "totalPage": {
                  "type": "integer"
                }
              }
            }
          }
        }
      }
    },
    "/myTest/user": {
      "post": {
        "x-requestSqlId": "3",
        "x-dataSourceId": "1",
        "x-responseType": "json",
        "produces": [
          "application/json"
        ],
        "consumes": [
          "application/x-www-form-urlencoded"
        ],
        "parameters": [
          {
            "in": "formData",
            "name": "NAME",
            "type": "string",
            "required": true
          },
          {
            "in": "formData",
            "name": "AGE",
            "type": "string",
            "required": true
          },
          {
            "in": "formData",
            "name": "SEX",
            "type": "string",
            "required": true
          }
        ],
        "responses": {
          "200": {
            "description": "The result",
            "schema": {
              "type": "object",
              "properties": {
                "code": {
                  "type": "integer"
                },
                "message": {
                  "type": "string"
                },
                "data": {
                  "type": "array",
                  "items": {
                    "properties": {}
                  }
                },
                "count": {
                  "type": "integer"
                },
                "pageId": {
                  "type": "integer"
                },
                "totalPage": {
                  "type": "integer"
                }
              }
            }
          }
        }
      }
    },
    "/myTest/updateUser": {
      "post": {
        "x-requestSqlId": "4",
        "x-dataSourceId": "1",
        "x-responseType": "json",
        "produces": [
          "application/json"
        ],
        "consumes": [
          "application/x-www-form-urlencoded"
        ],
        "parameters": [
          {
            "in": "formData",
            "name": "NAME",
            "type": "string",
            "required": true
          },
          {
            "in": "formData",
            "name": "AGE",
            "type": "integer",
            "required": true
          },
          {
            "in": "formData",
            "name": "SEX",
            "type": "string",
            "required": true
          },
          {
            "in": "formData",
            "name": "NATION",
            "type": "string",
            "required": true
          }
        ],
        "responses": {
          "200": {
            "description": "The result",
            "schema": {
              "type": "object",
              "properties": {
                "code": {
                  "type": "integer"
                },
                "message": {
                  "type": "string"
                },
                "data": {
                  "type": "array",
                  "items": {
                    "properties": {}
                  }
                },
                "count": {
                  "type": "integer"
                },
                "pageId": {
                  "type": "integer"
                },
                "totalPage": {
                  "type": "integer"
                }
              }
            }
          }
        }
      }
    },
    "/myTest/deleteUser": {
      "delete": {
        "x-requestSqlId": "5",
        "x-dataSourceId": "1",
        "x-responseType": "json",
        "produces": [
          "application/json"
        ],
        "consumes": [
          "application/x-www-form-urlencoded"
        ],
        "parameters": [
          {
            "in": "formData",
            "name": "NAME",
            "type": "string",
            "required": true
          }
        ],
        "responses": {
          "200": {
            "description": "The result",
            "schema": {
              "type": "object",
              "properties": {
                "code": {
                  "type": "integer"
                },
                "message": {
                  "type": "string"
                },
                "data": {
                  "type": "array",
                  "items": {
                    "properties": {}
                  }
                },
                "count": {
                  "type": "integer"
                },
                "pageId": {
                  "type": "integer"
                },
                "totalPage": {
                  "type": "integer"
                }
              }
            }
          }
        }
      }
    }
  },
  "x-dataSource": {
    "dataSource_No.1": {
      "modifyTimestamp": "2018-11-12 11:12:12",
      "host": "172.18.30.28",
      "port": "3306",
      "dbType": "mysql",
      "dbName": "crystal_test",
      "username": "root",
      "password": "123",
      "isOpen": true
    },
    "dataSource_No.2": {
      "modifyTimestamp": "2018-11-12 11:12:12",
      "host": "172.18.28.249",
      "port": "5432",
      "dbType": "pgsql",
      "dbName": "crystal_test",
      "username": "postres",
      "password": "123",
      "isOpen": true
    }
  },
  "x-requestSql": {
    "sql_No.1": {
      "modifyTimestamp": "2018-11-12 11:12:12",
      "sqlType": "get",
      "tableType": "singleTable",
      "enablePaging": false,
      "columns": [
        {
          "columnName": "name",
          "columnType": "varchar",
          "alias": "userName"
        },
        {
          "columnName": "age",
          "columnType": "int",
          "alias": "Age"
        },
        {
          "columnName": "brithday",
          "columnType": "varchar",
          "alias": "BIRTHDAY",
          "outputFormat": "YYYY-MM-DD"
        }
      ],
      "tableNames": [
        "user"
      ],
      "shema": "mySchema",
      "conditions": [
        {
          "leftExpression": {
            "columnName": "name",
            "columnType":"varchar",
            "belongToTable": "product"
          },
          "operator": "eq",
          "rightExpression": {
            "valueFromParam": "NAME",
            "paramLocation":"query"
          }
        }
      ]
    },
    "sql_No.2": {
      "sqlId": "2",
      "modifyTimestamp": "2018-11-12 11:12:12",
      "sqlType": "list",
      "tableType": "singleTable",
      "enablePaging": true,
      "pageSize": "pageSize&query",
      "pageNumber": "pageNumber&query",
      "columns": [
        {
          "columnName": "name",
          "columnType": "varchar",
          "alias": "userName"
        },
        {
          "columnName": "address",
          "columnType": "varchar",
          "alias": "ADDRESS"
        },
        {
          "columnName": "tel",
          "columnType": "varchar",
          "alias": "TEL"
        }
      ],
      "tableNames": [
        "user"
      ],
      "shema": "mySchema",
      "conditions": [
        {
          "leftExpression": {
            "columnName": "name",
            "columnType":"varchar",
            "belongToTable": "product"
          },
          "operator": "eq",
          "rightExpression": {
            "valueFromParam": "NAME",
            "paramLocation":"query"
          }
        },
        {
          "logicOperator": "or"
        },
        {
          "group": [
            {
              "leftExpression": {
                "columnName": "money",
                "columnType":"decimal",
                "belongToTable": "product"
              },
              "operator": "eq",
              "rightExpression": {
                "valueFromParam": "MONEY",
                "paramLocation":"query"
              }
            },
            {
              "logicOperator": "and"
            },
            {
              "leftExpression": {
                "columnName": "sex",
                "columnType":"varchar",
                "belongToTable": "product"
              },
              "operator": "eq",
              "rightExpression": {
                "valueFromParam": "SEX",
                "paramLocation":"query"
              }
            }
          ]
        }
      ]
    },
    "sql_No.3": {
      "sqlId": 3,
      "modifyTimestamp": "2018-11-12 11:12:12",
      "sqlType": "create",
      "tableType": "singleTable",
      "enablePaging": false,
      "columns": [
        {
          "columnName": "name",
          "columnType": "varchar",
          "valueFromParam": "NAME",
          "paramLocation":"formdata"
        },
        {
          "columnName": "age",
          "columnType": "varchar",
          "valueFromParam": "AGE",
          "paramLocation":"formdata"
        },
        {
          "columnName": "sex",
          "columnType": "varchar",
          "valueFromParam": "SEX",
          "paramLocation":"formdata"
        },
        {
          "columnName": "date",
          "columnType": "timestamp",
          "defaultColumn":true,
          "defaultValueType": "constant",
          "value": "百事可乐"
        }
      ],
      "tableNames": [
        "user"
      ],
      "shema": "mySchema"
    },
    "sql_No.4": {
      "sqlId": 4,
      "modifyTimestamp": "2018-11-12 11:12:12",
      "sqlType": "update",
      "tableType": "singleTable",
      "enablePaging": false,
      "columns": [
        {
          "columnName": "name",
          "columnType": "varchar",
          "valueFromParam": "NAME",
          "paramLocation":"formdata"
        },
        {
          "columnName": "age",
          "columnType": "varchar",
          "valueFromParam": "AGE",
          "paramLocation":"formdata"
        },
        {
          "columnName": "sex",
          "columnType": "varchar",
          "valueFromParam": "SEX",
          "paramLocation":"formdata"
        }
      ],
      "tableNames": [
        "user"
      ],
      "shema": "mySchema",
      "conditions": [
        {
          "leftExpression": {
            "columnName": "nation",
            "columnType":"varchar",
            "belongToTable": "product"
          },
          "operator": "eq",
          "rightExpression": {
            "valueFromParam": "NATION",
            "paramLocation":"formdata"
          }
        }
      ]
    },
    "sql_No.5": {
      "sqlId": 5,
      "modifyTimestamp": "2018-11-12 11:12:12",
      "sqlType": "delete",
      "tableType": "singleTable",
      "enablePaging": false,
      "tableNames": [
        "user"
      ],
      "shema": "mySchema",
      "conditions": [
        {
          "leftExpression": {
            "columnName": "name",
            "columnType":"varchar",
            "belongToTable": "product"
          },
          "operator": "eq",
          "rightExpression": {
            "valueFromParam": "NAME",
            "paramLocation":"formdata"
          }
        }
      ]
    }
  }
}